<svg  viewBox="0 0 30 30" fill="none" xmlns="http://www.w3.org/2000/svg">
<path d="M4.39453 0H25.6055C28.0284 0 30 1.97159 30 4.39453V25.6055C30 28.0284 28.0284 30 25.6055 30H4.39453C1.97159 30 0 28.0284 0 25.6055V4.39453C0 1.97159 1.97159 0 4.39453 0ZM14.9414 22.8516C19.3032 22.8516 22.8516 19.3032 22.8516 14.9414C22.8516 10.5796 19.3032 7.03125 14.9414 7.03125C10.5796 7.03125 7.03125 10.5796 7.03125 14.9414C7.03125 19.3032 10.5796 22.8516 14.9414 22.8516ZM6.15234 8.78906C7.6062 8.78906 8.78906 7.6062 8.78906 6.15234C8.78906 4.69849 7.6062 3.51562 6.15234 3.51562C4.69849 3.51562 3.51562 4.69849 3.51562 6.15234C3.51562 7.6062 4.69849 8.78906 6.15234 8.78906Z" fill="white"/>
<path d="M6.15234 5.27344C6.63734 5.27344 7.03125 5.66734 7.03125 6.15234C7.03125 6.63734 6.63734 7.03125 6.15234 7.03125C5.66734 7.03125 5.27344 6.63734 5.27344 6.15234C5.27344 5.66734 5.66734 5.27344 6.15234 5.27344Z" fill="white"/>
<path d="M14.9414 8.78906C18.3334 8.78906 21.0938 11.5494 21.0938 14.9414C21.0938 18.3334 18.3334 21.0938 14.9414 21.0938C11.5494 21.0938 8.78906 18.3334 8.78906 14.9414C8.78906 11.5494 11.5494 8.78906 14.9414 8.78906Z" fill="white"/>
</svg>
