<svg width="125" height="125" viewBox="0 0 125 125" fill="none" xmlns="http://www.w3.org/2000/svg">
<rect width="125" height="125" fill="#FF9D42"/>
<path d="M96.9763 50.3403L96.2917 50.3326C86.745 50.3326 78.1557 55.6692 73.7877 64.0261C71.0401 62.7868 68.0608 62.0824 64.9589 62.0824C59.8343 62.0824 55.0151 63.9095 51.1997 67.0917C51.1261 63.7275 50.6879 60.3772 50.2603 57.4008C49.894 54.8561 49.5426 52.387 49.5197 50.331L59.4207 50.3326C60.9889 50.3326 62.4652 49.7207 63.5744 48.6115L71.4077 40.7782C73.6465 38.5393 73.662 34.9483 71.5248 32.6472C72.2713 31.5284 72.6269 30.1884 72.4901 28.8201C72.3161 27.0626 71.3733 25.4907 69.9026 24.5114L65.1483 21.3426C62.8516 19.8107 60.1762 19 57.4128 19C51.6526 19 46.2385 21.2433 42.1652 25.3166C34.6626 32.8188 28.7591 41.4094 24.6131 50.8509C19.618 62.2258 17.0859 70.6175 17.0859 75.7905C17.0859 78.7548 16.8296 81.1624 16.3229 82.9487C15.2404 86.7639 16.9443 90.8335 20.4652 92.8453C34.5692 100.904 50.6104 105.165 66.8543 105.165H69.6865C79.7553 105.165 89.7035 103.551 99.2561 100.367L100.627 99.9079C106.233 98.0413 110 92.8149 110 86.9055V64.058C110 56.6837 104.157 50.5296 96.9763 50.3403ZM106.083 86.9055C106.083 91.1262 103.392 94.8591 99.3859 96.194L98.0147 96.653C88.8658 99.7013 79.3344 101.248 69.6863 101.248H66.8541C51.2909 101.248 35.921 97.1674 22.408 89.4451C20.4535 88.3283 19.5012 86.0964 20.0901 84.0176C20.6964 81.8852 21.0024 79.1161 21.0024 75.7903C21.0024 71.2274 23.4904 63.1494 28.2006 52.4267C32.1478 43.4307 37.778 35.2419 44.9341 28.0857C48.2674 24.7524 52.6985 22.9165 57.4126 22.9165C59.3996 22.9165 61.3234 23.4998 62.9757 24.6013L67.73 27.7701C68.2215 28.0971 68.535 28.621 68.5925 29.2063C68.6518 29.7935 68.4452 30.3672 68.0302 30.7841L61.7747 37.0396C61.1053 37.709 60.086 37.8734 59.2408 37.4508C58.6021 37.1314 58.1699 36.5443 58.0551 35.8387C57.9404 35.1332 58.1642 34.4388 58.6691 33.934L60.4686 32.1344C61.2336 31.3694 61.2336 30.1302 60.4686 29.3653C59.7036 28.6003 58.4644 28.6003 57.6995 29.3653L55.9 31.1649C54.4944 32.5704 53.8689 34.504 54.1884 36.4679C54.5078 38.4301 55.7107 40.0651 57.4891 40.9545C59.8415 42.1287 62.6813 41.6736 64.544 39.8089L68.8275 35.5253C69.3568 36.288 69.3173 37.3304 68.6384 38.0093L60.8051 45.8426C60.4398 46.2079 59.9349 46.4163 59.4205 46.4163L50.2764 46.4148C50.3992 46.2116 50.5171 46.0025 50.677 45.8426C51.442 45.0775 51.442 43.8383 50.677 43.0735C49.912 42.3084 48.6728 42.3084 47.9079 43.0735C44.7046 46.2767 45.4831 51.6908 46.3838 57.9595C46.8504 61.2144 47.3342 64.5803 47.3342 67.9575C47.3342 76.0241 41.2298 77.7414 40.9697 77.8102C39.9293 78.0799 39.2983 79.1374 39.5603 80.1816C39.782 81.0728 40.5796 81.6656 41.4573 81.6656C41.6141 81.6656 41.7747 81.6465 41.9335 81.6063C44.2783 81.0205 48.1211 78.7702 50.0526 74.1546C50.0792 74.1189 50.1226 74.1055 50.1474 74.0675C53.4138 69.0149 58.9501 65.9991 64.9589 65.9991C69.6366 65.9991 74.0427 67.8121 77.3646 71.1053C78.1335 71.8665 79.3746 71.8626 80.1337 71.0937C80.8949 70.3249 80.891 69.0856 80.1221 68.3246C79.2161 67.4263 78.2229 66.6518 77.1959 65.9382C80.8767 58.8083 88.1751 54.2493 96.2915 54.2493L96.8709 54.257C101.95 54.3909 106.083 58.7875 106.083 64.058V86.9055H106.083Z" fill="white"/>
</svg>
