<svg width="55" height="55" viewBox="0 0 55 55" fill="none" xmlns="http://www.w3.org/2000/svg">
<g clip-path="url(#clip0)">
<path d="M54.9929 32.5187C54.9873 32.4404 54.9693 32.3636 54.9396 32.291L50.1013 20.4458H52.3516C52.551 20.4458 52.7423 20.3665 52.8833 20.2255C53.0243 20.0845 53.1035 19.8932 53.1035 19.6938V16.3998C53.1035 16.2004 53.0243 16.0091 52.8833 15.8681C52.7423 15.7271 52.551 15.6479 52.3516 15.6479H49.5878L51.0917 9.19439C51.1175 9.08424 51.118 8.9697 51.0933 8.85931C51.0686 8.74892 51.0193 8.64553 50.9491 8.55685C50.8789 8.46817 50.7895 8.39648 50.6878 8.34713C50.586 8.29779 50.4744 8.27205 50.3612 8.27185H47.2855C47.154 8.27181 47.0248 8.30628 46.9108 8.3718C46.7968 8.43732 46.702 8.53161 46.6359 8.64525L42.5538 15.6492H32.0845C31.4482 15.6492 30.838 15.9019 30.388 16.3519C29.9381 16.8018 29.6853 17.412 29.6853 18.0483C29.6853 18.6846 29.9381 19.2948 30.388 19.7448C30.838 20.1947 31.4482 20.4475 32.0845 20.4475H42.3643L44.6872 32.4315L40.5193 38.9223H3.90258C2.86742 38.9223 1.87466 39.3335 1.14269 40.0655C0.410726 40.7975 -0.000488281 41.7902 -0.000488281 42.8254C-0.000488281 43.8605 0.410726 44.8533 1.14269 45.5853C1.87466 46.3172 2.86742 46.7285 3.90258 46.7285H54.2478C54.4472 46.7285 54.6385 46.6492 54.7795 46.5082C54.9205 46.3672 54.9997 46.1759 54.9997 45.9765V32.5844C54.9997 32.5621 54.995 32.5406 54.9929 32.5187ZM47.717 9.77533H49.4138L48.0444 15.6479H44.2936L47.717 9.77533ZM31.1895 18.0468C31.1898 17.8095 31.2842 17.5821 31.452 17.4143C31.6198 17.2465 31.8472 17.1521 32.0845 17.1518H51.5996V18.9423H32.0845C31.8471 18.9419 31.6196 18.8475 31.4518 18.6796C31.284 18.5117 31.1897 18.2842 31.1895 18.0468ZM48.4766 20.4458L53.128 31.8325H46.1022L43.8962 20.4458H48.4766ZM1.50363 42.8256C1.50432 42.1896 1.75728 41.5798 2.20702 41.13C2.65676 40.6803 3.26655 40.4273 3.90258 40.4267H39.552L38.4482 42.1454H4.08176C3.88233 42.1454 3.69106 42.2246 3.55005 42.3657C3.40903 42.5067 3.3298 42.6979 3.3298 42.8974C3.3298 43.0968 3.40903 43.2881 3.55005 43.4291C3.69106 43.5701 3.88233 43.6493 4.08176 43.6493H37.4822L36.4703 45.225H3.90258C3.26651 45.2242 2.65672 44.9711 2.207 44.5213C1.75727 44.0715 1.50431 43.4617 1.50363 42.8256ZM38.2578 45.2245L38.2673 45.2099L45.8929 33.3364H53.4958V35.9863H47.8742C47.6748 35.9863 47.4835 36.0655 47.3425 36.2065C47.2015 36.3475 47.1223 36.5388 47.1223 36.7382C47.1223 36.9377 47.2015 37.1289 47.3425 37.2699C47.4835 37.4109 47.6748 37.4902 47.8742 37.4902H53.4958V40.1401H47.8742C47.6748 40.1401 47.4835 40.2193 47.3425 40.3603C47.2015 40.5013 47.1223 40.6926 47.1223 40.892C47.1223 41.0914 47.2015 41.2827 47.3425 41.4237C47.4835 41.5647 47.6748 41.644 47.8742 41.644H53.4958V45.2245H38.2578Z" fill="white"/>
</g>
<defs>
<clipPath id="clip0">
<rect width="55" height="55" fill="white"/>
</clipPath>
</defs>
</svg>
